<?xml version="1.0" encoding="UTF-8"?>
<CustomTab xmlns="http://soap.sforce.com/2006/04/metadata">
    <customObject>true</customObject>
    <description>CQ Tab for managing Change Order</description>
    <icon>Compliance_Quest/change_icon.png</icon>
    <mobileReady>false</mobileReady>
    <motif>Custom39: Telescope</motif>
</CustomTab>
