<?xml version="1.0" encoding="UTF-8"?>
<CustomTab xmlns="http://soap.sforce.com/2006/04/metadata">
    <customObject>true</customObject>
    <description>Supplier Escalation Tab.</description>
    <mobileReady>false</mobileReady>
    <motif>Custom43: Jewel</motif>
</CustomTab>
