<?xml version="1.0" encoding="UTF-8"?>
<CustomTab xmlns="http://soap.sforce.com/2006/04/metadata">
    <customObject>true</customObject>
    <description>Corrective Action Preventive Action</description>
    <icon>Compliance_Quest/capa_icon.png</icon>
    <mobileReady>false</mobileReady>
    <motif>Custom7: Square</motif>
</CustomTab>
