<?xml version="1.0" encoding="UTF-8"?>
<CustomTab xmlns="http://soap.sforce.com/2006/04/metadata">
    <customObject>true</customObject>
    <description>CQ Tab for managing Part Families (CQ Setup Object)</description>
    <mobileReady>false</mobileReady>
    <motif>Custom99: CRT TV</motif>
</CustomTab>
